module go_helm

go 1.18

require (
	github.com/prometheus/client_golang v1.13.0 // direct
	golang.org/x/exp v0.0.0-20200224162631-6cc2880d07d6
	gonum.org/v1/gonum v0.12.0
)

require (
	github.com/beorn7/perks v1.0.1 // indirect
	github.com/cespare/xxhash/v2 v2.1.2 // indirect
	github.com/golang/protobuf v1.5.2 // indirect
	github.com/matttproud/golang_protobuf_extensions v1.0.1 // indirect
	github.com/prometheus/client_model v0.2.0 // indirect
	github.com/prometheus/common v0.37.0 // indirect
	github.com/prometheus/procfs v0.8.0 // indirect
	golang.org/x/sys v0.0.0-20220520151302-bc2c85ada10a // indirect
	google.golang.org/protobuf v1.28.1 // indirect
)
